.....................
----------------------------------------------------------------------
Ran 21 tests in 41.275s

OK
Name             Stmts   Miss Branch BrPart  Cover   Missing
------------------------------------------------------------
Collatz.py          44     10     16      0    77%   2056-2065
TestCollatz.py      87      0      0      0   100%
------------------------------------------------------------
TOTAL              131     10     16      0    90%
