1 10 20
100 200 125
201 210 89
900 1000 174
1 999999 525
757 873 179
999999 999999 259
12756 828287 509
784662 110057 509
177242 765492 509
408843 568117 470
121911 986261 525
408214 639786 509
512689 258031 470
881862 461720 525
412927 339160 449
284315 957910 525
226543 884240 525
945425 85379 525
417445 646589 509
516073 82164 470
625615 45570 470
427522 114808 449
832593 647328 504
922981 701732 525
133449 284395 443
851813 450112 525
863293 391634 525
65311 887363 525
13117 462728 449
574811 274746 470
659909 348575 509
890001 644687 525
153447 907898 525
664185 552515 509
750287 851299 525
665770 646767 442
196353 938402 525
630800 840865 525
860392 945279 507
868538 633486 525
525468 304457 470
385676 648329 509
852434 797401 525
23421 766098 509
907994 16723 525
160408 14125 383
594239 262780 470
176956 457359 449
327786 405060 441
77848 212903 383
243036 270688 407
626030 621060 385
760462 19041 509
324397 934430 525
777777 500 509
83542 750491 509
448493 143555 449
34798 687145 509
909174 864847 445
59265 963053 525
906486 595746 525
419000 647467 509
1999 403212 443
322627 475797 449
387818 528747 470
93842 629742 509
336002 274347 389
436776 701548 509
951321 32610 525
758238 691084 504
839911 731017 525
903019 158338 525
261290 878581 525
120689 857573 525
241055 810174 509
860304 427377 525
882262 348665 525
678605 472524 509
932594 895345 476
4759 25338 282
170 419891 449
109031 601102 470
288612 331323 389
518801 267499 470
931538 784436 525
414997 109009 449
969998 707334 525
606395 137929 470
528796 729259 509
292089 617679 470
344877 390981 441
73917 701600 509
896661 750591 525
320008 294964 384
582612 732046 509
965011 955697 414
72808 620568 470
235274 682068 509
599310 622452 447
455124 514305 470
5 652113 509
266399 899035 525
777434 804577 468
163982 103767 383
366179 447354 449
549383 610820 434
911237 433566 525
180690 637145 509
315983 279829 389
472640 182264 449
791872 613942 509
46936 734567 509
881802 642264 525
479306 303476 449
770060 30613 509
