....................
----------------------------------------------------------------------
Ran 20 tests in 0.178s

OK
Name             Stmts   Miss Branch BrPart  Cover   Missing
------------------------------------------------------------
Collatz.py          38      0     14      1    98%   49->61
TestCollatz.py      86      0      0      0   100%
------------------------------------------------------------
TOTAL              124      0     14      1    99%
