...................
----------------------------------------------------------------------
Ran 19 tests in 0.169s

OK
Name             Stmts   Miss Branch BrPart  Cover   Missing
------------------------------------------------------------
Collatz.py          41      0     14      0   100%
TestCollatz.py      83      0      0      0   100%
------------------------------------------------------------
TOTAL              124      0     14      0   100%
