..............
----------------------------------------------------------------------
Ran 14 tests in 0.161s

OK
Name             Stmts   Miss Branch BrPart  Cover   Missing
------------------------------------------------------------
Collatz.py          50      0     16      0   100%
TestCollatz.py      61      0      0      0   100%
------------------------------------------------------------
TOTAL              111      0     16      0   100%
