1 10 20
100 200 125
201 210 89
900 1000 174
1 1 1
15 15 18
20 20 8
2 2 2
3 3 8
4 4 3
10 1 20
200 100 125
210 201 89
1000 900 174
50 45 105
9999 9998 92
1010 1010 63
2022 2020 64
2020 2020 64
500 500 111
500 400 142
300 200 128
1111 1000 169
999 999 50
1299 1200 177
8999 8998 185
6666 6666 32
6666 6660 182
5678 5400 236
7879 7879 146
5959 5959 125
4589 4589 60
30 30 19
35 30 107
9876 6789 260
4321 1234 238
5432 2345 238
6543 3456 262
7654 4567 262
8765 5678 262
321 123 131
234 432 144
345 543 142
456 654 145
567 765 171
678 876 179
789 987 179
678 784 171
238 532 144
494 593 137
472 395 134
953 271 179
482 853 171
382 834 171
259 295 123
582 683 145
582 970 179
982 583 179
482 683 145
602 529 137
829 582 171
592 823 171
338 593 142
559 220 144
842 492 171
582 493 137
493 830 171
372 483 134
902 749 179
830 729 153
582 932 179
923 582 179
582 402 142
593 603 119
528 582 137
583 502 137
693 583 145
593 593 75
293 502 144
924 528 179
283 583 144
292 402 144
592 892 179
293 402 144
492 294 144
945 564 179
683 683 39
583 293 144
248 693 145
204 295 128
295 205 128
939 302 179
39 590 144
204 69 125
209 36 125
293 85 128
294 69 128
246 49 128
384 200 144
593 205 144
261481 261858 288
908012 909802 370
984442 984350 246
931890 931544 277
788836 791387 406
919454 919499 202
575642 575716 297
915504 916839 339
285788 285880 252
919365 918704 339
827554 827930 313
850429 850334 313
737959 737960 150
809210 810518 406
974713 974143 321
456486 455019 338
727712 727631 287
743706 745566 318
465147 463724 338
945152 944673 352
776248 775948 331
541191 542743 364
256518 255672 332
947523 950576 383
423648 421688 356
574485 575669 328
588113 587943 266
748123 748033 318
930036 929896 264
982165 982843 383
